hw4
…
Each chick should have twelve weight measurements. Use the dplyr package to identify how many measurements are there for each chick. Extract a subset of the data for all chicks with complete information, name the data set complete, and print the first 3 rows. (Hint: you might want to use mutate to introduce a helper variable consisting of the number of observations)

ChickWeight %>% nrow()

## [1] 578

complete1 = ChickWeight
complete = ChickWeight
complete <- complete %>% group_by(Chick) %>% tally() %>% arrange(n)

complete ##When printing this out we see that chicks 8, 15, 16, 18 and 44 have incomplete data sets

## # A tibble: 50 x 2
##    Chick     n
##    <ord> <int>
##  1 18        2
##  2 16        7
##  3 15        8
##  4 44       10
##  5 8        11
##  6 13       12
##  7 9        12
##  8 20       12
##  9 10       12
## 10 17       12
## # ... with 40 more rows
…
